<?xml version="1.0" standalone="no"?>
<!DOCTYPE svg PUBLIC "-//W3C//DTD SVG 20010904//EN"
 "http://www.w3.org/TR/2001/REC-SVG-20010904/DTD/svg10.dtd">
<svg version="1.0" xmlns="http://www.w3.org/2000/svg"
 width="1172.000000pt" height="1172.000000pt" viewBox="0 0 1172.000000 1172.000000"
 preserveAspectRatio="xMidYMid meet">
<metadata>
Created by potrace 1.11, written by Peter Selinger 2001-2013
</metadata>
<g transform="translate(0.000000,1172.000000) scale(0.100000,-0.100000)"
fill="#000000" stroke="none">
<path d="M5836 11462 c-3 -2 -40 -6 -83 -7 -86 -4 -190 -14 -213 -20 -8 -2
-35 -7 -60 -10 -25 -4 -76 -13 -115 -21 -38 -9 -78 -17 -88 -19 -9 -2 -21 -6
-25 -9 -5 -3 -19 -7 -33 -10 -56 -12 -74 -16 -157 -41 -89 -27 -161 -51 -197
-65 -11 -5 -54 -21 -95 -36 -41 -14 -97 -37 -125 -49 -27 -12 -77 -32 -110
-45 -33 -13 -103 -49 -155 -78 -52 -30 -104 -60 -115 -66 -26 -15 -109 -69
-115 -76 -3 -3 -25 -18 -50 -34 -170 -110 -402 -312 -612 -532 -25 -27 -65
-67 -88 -89 -101 -96 -185 -240 -240 -410 -31 -97 -35 -111 -45 -157 -2 -13
-8 -36 -11 -53 -4 -16 -8 -39 -10 -50 -7 -41 -10 -55 -16 -61 -4 -3 -4 -12 -1
-20 3 -8 0 -14 -7 -14 -6 0 -9 -4 -5 -9 4 -7 -43 -247 -59 -296 -7 -24 -18
-51 -25 -65 -5 -9 -12 -31 -16 -50 -4 -19 -10 -39 -13 -45 -4 -5 -8 -14 -9
-20 -1 -5 -12 -46 -23 -90 -12 -44 -23 -93 -25 -110 -8 -52 -15 -99 -21 -130
-12 -68 -27 -278 -28 -387 l-1 -77 -60 -22 c-33 -12 -85 -30 -115 -41 -30 -11
-63 -21 -72 -23 -50 -10 -95 -50 -112 -100 -14 -39 -13 -54 5 -125 6 -25 13
-54 15 -65 2 -11 6 -31 9 -45 4 -14 8 -36 11 -50 3 -14 7 -33 10 -42 3 -10 7
-28 10 -40 2 -13 6 -34 9 -48 4 -14 8 -36 11 -50 3 -14 23 -99 45 -190 43
-173 46 -186 55 -235 3 -16 9 -34 15 -40 5 -5 9 -20 9 -32 0 -13 7 -37 15 -53
9 -17 13 -30 10 -30 -3 0 1 -13 10 -30 8 -16 15 -32 15 -35 0 -11 37 -93 78
-174 23 -46 45 -100 48 -120 3 -20 8 -49 12 -66 9 -43 9 -687 0 -707 -5 -10
-4 -19 2 -23 6 -4 7 -11 4 -17 -3 -5 -8 -51 -9 -101 -2 -51 -7 -137 -10 -192
-4 -55 -9 -125 -10 -155 -4 -53 -9 -122 -20 -240 -6 -69 -15 -145 -31 -247 -3
-21 -7 -57 -9 -79 -5 -40 -27 -160 -40 -214 -4 -14 -8 -43 -10 -65 -2 -22 -4
-40 -5 -40 -1 0 -3 -36 -5 -80 -2 -44 -6 -147 -9 -230 -8 -184 -16 -415 -20
-556 -1 -58 -6 -111 -10 -117 -4 -7 -2 -12 4 -12 6 0 8 -5 5 -10 -3 -6 -8 -70
-10 -143 -3 -72 -7 -202 -10 -287 -8 -207 -13 -382 -20 -704 -3 -149 -7 -272
-10 -274 -2 -2 0 -15 5 -28 6 -14 6 -24 1 -24 -5 0 -7 -8 -4 -18 3 -14 -12
-24 -79 -52 -146 -59 -316 -144 -429 -215 -146 -92 -343 -269 -405 -365 -16
-25 -31 -47 -34 -50 -3 -3 -11 -16 -18 -30 -7 -14 -22 -41 -32 -60 -18 -33
-19 -66 -19 -628 l-1 -592 4225 0 4225 0 0 791 c0 742 -1 793 -17 805 -10 7
-26 14 -35 14 -10 0 -18 5 -18 10 0 6 -4 10 -10 10 -5 0 -47 17 -92 38 -46 22
-99 46 -118 54 -19 9 -55 25 -80 36 -25 11 -84 36 -133 56 -48 20 -106 44
-130 55 -23 10 -58 24 -77 31 -19 7 -53 20 -75 30 -22 9 -124 50 -227 91 -104
40 -188 77 -188 82 0 4 5 5 10 2 12 -8 13 10 1 55 -6 19 -12 55 -15 80 -3 25
-7 59 -10 75 -13 78 -22 170 -31 291 -2 32 -4 59 -5 59 -2 0 -3 23 -5 50 -2
46 -9 127 -21 250 -2 28 -7 79 -10 115 -3 36 -7 83 -9 105 -2 22 -6 72 -9 110
-6 68 -11 105 -22 190 -3 22 -7 58 -9 80 -3 22 -7 56 -10 75 -3 19 -7 55 -10
80 -3 25 -7 59 -10 75 -2 17 -6 57 -10 90 -3 33 -8 78 -10 100 -18 167 -23
695 -11 1140 3 127 9 334 12 460 3 127 7 262 8 302 1 39 5 75 8 79 4 4 3 14
-2 24 -5 10 -7 19 -5 21 4 4 11 207 20 579 2 85 5 155 5 155 1 0 3 11 6 24 2
13 11 38 18 55 16 35 57 146 60 161 1 6 8 20 14 33 7 12 11 22 8 22 -3 0 0 15
6 33 11 37 28 102 34 136 3 13 12 51 20 85 8 34 17 70 19 81 12 54 17 75 17
82 0 5 4 17 8 29 5 11 11 36 14 55 3 19 8 45 12 59 3 14 7 34 9 45 2 11 11 52
20 90 9 39 19 81 21 95 2 14 6 34 8 45 22 102 23 125 5 164 -22 49 -41 62
-154 102 -49 17 -93 34 -96 38 -4 3 -10 125 -13 271 -3 146 -8 290 -11 320 -6
76 -14 150 -20 180 -3 14 -7 47 -11 74 -3 27 -12 75 -20 105 -8 31 -17 70 -20
86 -3 17 -17 68 -31 115 -15 47 -28 90 -30 95 -1 6 -27 109 -58 230 -52 208
-64 260 -70 295 -1 8 -5 22 -8 30 -6 17 -20 70 -22 85 -1 6 -4 17 -7 25 -3 8
-24 71 -46 140 -22 69 -56 159 -74 200 -19 41 -35 79 -35 84 -1 5 -5 12 -10
15 -5 3 -20 28 -33 55 -29 58 -135 165 -335 342 -84 74 -301 224 -324 224 -6
0 -11 3 -11 8 0 4 -15 12 -32 19 -169 60 -211 72 -263 79 -71 9 -65 9 -135 -2
-75 -11 -193 -6 -220 11 -6 4 -22 8 -36 11 -13 2 -57 17 -97 33 -122 48 -287
103 -349 116 -33 6 -106 11 -163 10 -57 -1 -128 3 -158 9 -30 6 -84 11 -121
11 -36 0 -66 4 -66 8 0 4 -7 4 -16 -1 -8 -5 -35 -6 -60 -2 -24 4 -46 5 -48 2z
m-2985 -3651 c1 -56 5 -104 9 -106 3 -2 5 -16 4 -32 -1 -15 -2 -53 -4 -83 l-2
-55 -19 75 c-11 41 -24 95 -29 120 -6 25 -16 73 -24 107 -7 34 -11 62 -7 61 3
-1 13 1 21 5 23 9 45 14 47 13 1 -1 3 -48 4 -105z m5806 -3953 c-3 -7 -5 -2
-5 12 0 14 2 19 5 13 2 -7 2 -19 0 -25z m-3648 -1578 c-10 -27 -13 -28 -32
-18 -12 6 -23 11 -24 10 -2 -1 -15 -2 -30 -1 -21 1 -16 4 20 14 27 7 51 16 55
19 14 15 20 3 11 -24z m3841 -149 c0 -17 -3 -18 -24 -8 -16 8 -21 14 -13 19
21 13 37 9 37 -11z m674 -377 c3 -8 2 -12 -4 -9 -6 3 -10 10 -10 16 0 14 7 11
14 -7z m-7004 -110 c0 -8 -19 -13 -24 -6 -3 5 1 9 9 9 8 0 15 -2 15 -3z m-630
-364 c0 -5 -2 -10 -4 -10 -3 0 -8 5 -11 10 -3 6 -1 10 4 10 6 0 11 -4 11 -10z"/>
</g>
</svg>
